wb_uvc/work/default_dump.vcd
$date
	Tue Apr 22 16:21:11 2025
$end

$version
	Synopsys VCS version W-2024.09-SP1_Full64
$end

$timescale
	10ps
$end

$comment Csum: 1 8d6419b4b3876a21 $end


$scope module uvm_pkg $end
$var time 64 ! setting_offset $end
$var reg 32 " uvm_global_random_seed [31:0] $end
$var reg 32 # UVM_UNBOUNDED_CONNECTIONS [31:0] $end
$var reg 1 $ uvm_start_uvm_declarations $end
$var reg 32 % setting_verbosity [31:0] $end
$var reg 1 & is_verdi_set_verbosity_called $end
$var reg 1 ' is_uvm_factory_trace_checked $end
$var reg 1 ( is_verdi_trace_fac $end
$upscope $end


$scope module $unit $end
$upscope $end


$scope module wb_pkg $end
$upscope $end


$scope module tb_top $end
$var reg 1 ) clk $end
$var reg 1 * reset $end

$scope begin unnamed$$_0 $end
$upscope $end


$scope begin unnamed$$_vcs_0 $end
$upscope $end


$scope begin unnamed$$_vcs_1 $end
$upscope $end


$scope begin unnamed$$_vcs_2 $end
$upscope $end


$scope module clkgen $end
$var reg 1 ) clock $end
$var wire 1 + run_clock $end
$var reg 32 , clock_period [31:0] $end
$upscope $end


$scope module wb_intif $end
$var wire 1 - clock $end
$var wire 1 . reset $end
$var reg 32 / ADR_O [31:0] $end
$var reg 8 0 DAT_I [7:0] $end
$var reg 8 1 DAT_O [7:0] $end
$var reg 1 2 WE_O $end
$var reg 1 3 STB_O $end
$var reg 1 4 ACK_I $end
$var reg 1 5 CYC_O $end

$scope task wb_reset $end
$upscope $end


$scope task send_to_dut $end
$var reg 32 6 address [31:0] $end
$var reg 8 7 data [7:0] $end
$upscope $end

$upscope $end

$upscope $end

$enddefinitions $end

#0
$dumpvars
1'
0&
0(
1$
bxxxxxxxxxxxxxxxxxxxxxxxxxxxxxxxxxxxxxxxxxxxxxxxxxxxxxxxxxxxxxxxx !
b11111111111111111111111111111111 #
b00000000000000000000000000000000 %
b11011110010100000100000001101001 "
0)
0*
b00000000 1
b00000000 0
bzzzzzzzzzzzzzzzzzzzzzzzzzzzzzzzz /
b00000000000000000000000000000000 6
b00000000 7
b00000000000000000000000000001010 ,
1+
0-
0.
04
05
x3
02
$end
#500
1)
1-
#1000
0)
0-
#1500
1)
1-
#2000
0)
0-
#2100
1*
1.
b00000000000000000000000000100000 6
b00000000000000000000000000100000 /
13
15
12
#2500
1)
1-
#3000
0)
0-
#3500
1)
1-
#4000
0)
0-
#4500
1)
1-
#5000
0)
0-
14
03
05
04
b00000000000000000000000000100001 6
b00000000000000000000000000100001 /
13
15
#5500
1)
1-
#6000
0)
0-
#6500
1)
1-
#7000
0)
0-
#7500
1)
1-
#8000
0)
0-
14
03
05
04
b00000000000000000000000000100010 6
b00000000000000000000000000100010 /
13
15
#8500
1)
1-
#9000
0)
0-
#9500
1)
1-
#10000
0)
0-
#10500
1)
1-
#11000
0)
0-
14
03
05
04
b00000000000000000000000000100011 6
b00001011 7
b00001011 1
b00000000000000000000000000100011 /
13
15
#11500
1)
1-
#12000
0)
0-
#12500
1)
1-
#13000
0)
0-
#13500
1)
1-
#14000
0)
0-
14
03
05
04
b00000000000000000000000000100100 6
b00000000 7
b00000000 1
b00000000000000000000000000100100 /
13
15
#14500
1)
1-
#15000
0)
0-
#15500
1)
1-
#16000
0)
0-
#16500
1)
1-
#17000
0)
0-
14
03
05
04
b00000000000000000000000000100011 6
b10001011 7
b10001011 1
b00000000000000000000000000100011 /
13
15
#17500
1)
1-
#18000
0)
0-
#18500
1)
1-
#19000
0)
0-
#19500
1)
1-
#20000
0)
0-
14
03
05
04
b00000000000000000000000000100001 6
b00000001 7
b00000001 1
b00000000000000000000000000100001 /
13
15
#20500
1)
1-
#21000
0)
0-
#21500
1)
1-
#22000
0)
0-
#22500
1)
1-
#23000
0)
0-
14
03
05
04
b00000000000000000000000000100000 6
b01000101 7
b01000101 1
b00000000000000000000000000100000 /
13
15
#23500
1)
1-
#24000
0)
0-
#24500
1)
1-
#25000
0)
0-
#25500
1)
1-
#26000
0)
0-
14
03
05
04
#26500
1)
1-
#27000
0)
0-
#27500
1)
1-
#28000
0)
0-
#28500
1)
1-
#29000
0)
0-
14
